\relax 
\providecommand{\transparent@use}[1]{}
\providecommand\hyper@newdestlabel[2]{}
\catcode `"\active 
\providecommand\HyperFirstAtBeginDocument{\AtBeginDocument}
\HyperFirstAtBeginDocument{\ifx\hyper@anchor\@undefined
\global\let\oldcontentsline\contentsline
\gdef\contentsline#1#2#3#4{\oldcontentsline{#1}{#2}{#3}}
\global\let\oldnewlabel\newlabel
\gdef\newlabel#1#2{\newlabelxx{#1}#2}
\gdef\newlabelxx#1#2#3#4#5#6{\oldnewlabel{#1}{{#2}{#3}}}
\AtEndDocument{\ifx\hyper@anchor\@undefined
\let\contentsline\oldcontentsline
\let\newlabel\oldnewlabel
\fi}
\fi}
\global\let\hyper@last\relax 
\gdef\HyperFirstAtBeginDocument#1{#1}
\providecommand\HyField@AuxAddToFields[1]{}
\providecommand\HyField@AuxAddToCoFields[2]{}
\babel@aux{polish}{}
\@writefile{toc}{\contentsline {part}{\numberline {I\relax .\leavevmode@ifvmode \kern .5em }Projekt}{2}{part.1}\protected@file@percent }
\@writefile{toc}{\contentsline {chapter}{\numberline {1\relax .\leavevmode@ifvmode \kern .5em }Opis zadania}{3}{chapter.1}\protected@file@percent }
\@writefile{lof}{\addvspace {10\p@ }}
\@writefile{lot}{\addvspace {10\p@ }}
\@writefile{toc}{\contentsline {part}{\numberline {II\relax .\leavevmode@ifvmode \kern .5em }Klasyfikacja losowego obrazu z ka\.zdej klasy}{4}{part.2}\protected@file@percent }
\@writefile{toc}{\contentsline {chapter}{\numberline {2\relax .\leavevmode@ifvmode \kern .5em }Uzyskane wyniki podczas klasyfikacji obraz\'ow z u\.zyciem sieci neuronowej GoogLeNet}{5}{chapter.2}\protected@file@percent }
\@writefile{lof}{\addvspace {10\p@ }}
\@writefile{lot}{\addvspace {10\p@ }}
\@writefile{toc}{\contentsline {section}{\numberline {2.1\relax .\leavevmode@ifvmode \kern .5em }Rezultaty dla flagi USA}{5}{section.2.1}\protected@file@percent }
\@writefile{lof}{\contentsline {figure}{\numberline {2.1.}{\ignorespaces Wykres pokazuj\k acy prawdopodobie\'nstwo rozpoznanych przedmiot\'ow}}{5}{figure.2.1}\protected@file@percent }
\@writefile{lof}{\contentsline {figure}{\numberline {2.2.}{\ignorespaces Obraz u\.zyty do klasyfikacji \newline  *w tytule: rozpoznana klasa i jej prawdopodobie\'nstwo}}{6}{figure.2.2}\protected@file@percent }
\@writefile{lof}{\contentsline {figure}{\numberline {2.3.}{\ignorespaces Wykres pokazuj\k acy prawdopodobie\'nstwo rozpoznanych przedmiot\'ow}}{6}{figure.2.3}\protected@file@percent }
\@writefile{lof}{\contentsline {figure}{\numberline {2.4.}{\ignorespaces Obraz u\.zyty do klasyfikacji \newline  *w tytule: rozpoznana klasa i jej prawdopodobie\'nstwo}}{6}{figure.2.4}\protected@file@percent }
\@writefile{toc}{\contentsline {section}{\numberline {2.2\relax .\leavevmode@ifvmode \kern .5em }Rezultaty dla flagi Wielkiej Brytani}{7}{section.2.2}\protected@file@percent }
\@writefile{lof}{\contentsline {figure}{\numberline {2.5.}{\ignorespaces Wykres pokazuj\k acy prawdopodobie\'nstwo rozpoznanych przedmiot\'ow}}{7}{figure.2.5}\protected@file@percent }
\@writefile{lof}{\contentsline {figure}{\numberline {2.6.}{\ignorespaces Obraz u\.zyty do klasyfikacji \newline  *w tytule: rozpoznana klasa i jej prawdopodobie\'nstwo}}{7}{figure.2.6}\protected@file@percent }
\@writefile{lof}{\contentsline {figure}{\numberline {2.7.}{\ignorespaces Wykres pokazuj\k acy prawdopodobie\'nstwo rozpoznanych przedmiot\'ow}}{8}{figure.2.7}\protected@file@percent }
\@writefile{lof}{\contentsline {figure}{\numberline {2.8.}{\ignorespaces Obraz u\.zyty do klasyfikacji \newline  *w tytule: rozpoznana klasa i jej prawdopodobie\'nstwo}}{8}{figure.2.8}\protected@file@percent }
\@writefile{toc}{\contentsline {section}{\numberline {2.3\relax .\leavevmode@ifvmode \kern .5em }Rezultaty dla flagi Korei Po\IeC {\l }udniowej}{8}{section.2.3}\protected@file@percent }
\@writefile{lof}{\contentsline {figure}{\numberline {2.9.}{\ignorespaces Wykres pokazuj\k acy prawdopodobie\'nstwo rozpoznanych przedmiot\'ow}}{9}{figure.2.9}\protected@file@percent }
\@writefile{lof}{\contentsline {figure}{\numberline {2.10.}{\ignorespaces Obraz u\.zyty do klasyfikacji \newline  *w tytule: rozpoznana klasa i jej prawdopodobie\'nstwo}}{9}{figure.2.10}\protected@file@percent }
\@writefile{lof}{\contentsline {figure}{\numberline {2.11.}{\ignorespaces Wykres pokazuj\k acy prawdopodobie\'nstwo rozpoznanych przedmiot\'ow}}{9}{figure.2.11}\protected@file@percent }
\@writefile{lof}{\contentsline {figure}{\numberline {2.12.}{\ignorespaces Obraz u\.zyty do klasyfikacji \newline  *w tytule: rozpoznana klasa i jej prawdopodobie\'nstwo}}{10}{figure.2.12}\protected@file@percent }
\@writefile{lof}{\contentsline {figure}{\numberline {2.13.}{\ignorespaces Wykres pokazuj\k acy prawdopodobie\'nstwo rozpoznanych przedmiot\'ow}}{10}{figure.2.13}\protected@file@percent }
\@writefile{lof}{\contentsline {figure}{\numberline {2.14.}{\ignorespaces Obraz u\.zyty do klasyfikacji \newline  *w tytule: rozpoznana klasa i jej prawdopodobie\'nstwo}}{10}{figure.2.14}\protected@file@percent }
\@writefile{toc}{\contentsline {section}{\numberline {2.4\relax .\leavevmode@ifvmode \kern .5em }Rezultaty dla flagi Brazyli}{11}{section.2.4}\protected@file@percent }
\@writefile{lof}{\contentsline {figure}{\numberline {2.15.}{\ignorespaces Wykres pokazuj\k acy prawdopodobie\'nstwo rozpoznanych przedmiot\'ow}}{11}{figure.2.15}\protected@file@percent }
\@writefile{lof}{\contentsline {figure}{\numberline {2.16.}{\ignorespaces Obraz u\.zyty do klasyfikacji \newline  *w tytule: rozpoznana klasa i jej prawdopodobie\'nstwo}}{11}{figure.2.16}\protected@file@percent }
\@writefile{toc}{\contentsline {section}{\numberline {2.5\relax .\leavevmode@ifvmode \kern .5em }Wnioski z klasyfikacji pojedynczych obrazk\'ow}{11}{section.2.5}\protected@file@percent }
\@writefile{lof}{\contentsline {figure}{\numberline {2.17.}{\ignorespaces Wykres pokazuj\k acy prawdopodobie\'nstwo rozpoznanych przedmiot\'ow}}{12}{figure.2.17}\protected@file@percent }
\@writefile{lof}{\contentsline {figure}{\numberline {2.18.}{\ignorespaces Obraz u\.zyty do klasyfikacji \newline  *w tytule: rozpoznana klasa i jej prawdopodobie\'nstwo}}{12}{figure.2.18}\protected@file@percent }
\@writefile{toc}{\contentsline {part}{\numberline {III\relax .\leavevmode@ifvmode \kern .5em }Douczenie sieci neuronowej GoogLeNet}{13}{part.3}\protected@file@percent }
\@writefile{toc}{\contentsline {chapter}{\numberline {3\relax .\leavevmode@ifvmode \kern .5em }Przebieg douczania sieci neuronowej GoogLeNet}{14}{chapter.3}\protected@file@percent }
\@writefile{lof}{\addvspace {10\p@ }}
\@writefile{lot}{\addvspace {10\p@ }}
\@writefile{lof}{\contentsline {figure}{\numberline {3.1.}{\ignorespaces Ostatnie warstwy sieci neuronowej po zmianie warstw na dostosowane do nowego zestawu danych}}{14}{figure.3.1}\protected@file@percent }
\@writefile{toc}{\contentsline {chapter}{\numberline {4\relax .\leavevmode@ifvmode \kern .5em }Uzyskane wyniki podczas klasyfikacji obraz\'ow z u\.zyciem sieci neuronowej GoogLeNet}{15}{chapter.4}\protected@file@percent }
\@writefile{lof}{\addvspace {10\p@ }}
\@writefile{lot}{\addvspace {10\p@ }}
\@writefile{toc}{\contentsline {section}{\numberline {4.1\relax .\leavevmode@ifvmode \kern .5em }Pierwsza pr\'oba}{15}{section.4.1}\protected@file@percent }
\@writefile{lof}{\contentsline {figure}{\numberline {4.1.}{\ignorespaces Wykresy pokazuj\k ace przebieg uczenia si\k e sieci neuronowej GoogLeNet}}{15}{figure.4.1}\protected@file@percent }
\@writefile{lof}{\contentsline {figure}{\numberline {4.2.}{\ignorespaces Wyniki rozpoznania obraz\'ow znajduj\k acych si\k e w zbiorze testowym}}{15}{figure.4.2}\protected@file@percent }
\@writefile{toc}{\contentsline {section}{\numberline {4.2\relax .\leavevmode@ifvmode \kern .5em }Druga pr\'oba}{16}{section.4.2}\protected@file@percent }
\@writefile{lof}{\contentsline {figure}{\numberline {4.3.}{\ignorespaces Wykresy pokazuj\k ace przebieg uczenia si\k e sieci neuronowej GoogLeNet}}{16}{figure.4.3}\protected@file@percent }
\newlabel{proba2_wykres}{{4.3}{16}{Wykresy pokazujące przebieg uczenia się sieci neuronowej GoogLeNet}{figure.4.3}{}}
\newlabel{proba2_wykres@cref}{{[figure][3][4]4.3}{[1][16][]16}}
\@writefile{lof}{\contentsline {figure}{\numberline {4.4.}{\ignorespaces Wyniki rozpoznania obraz\'ow znajduj\k acych si\k e w zbiorze testowym}}{16}{figure.4.4}\protected@file@percent }
\@writefile{toc}{\contentsline {section}{\numberline {4.3\relax .\leavevmode@ifvmode \kern .5em }Trzecia pr\'oba}{17}{section.4.3}\protected@file@percent }
\@writefile{lof}{\contentsline {figure}{\numberline {4.5.}{\ignorespaces Wykresy pokazuj\k ace przebieg uczenia si\k e sieci neuronowej GoogLeNet}}{17}{figure.4.5}\protected@file@percent }
\newlabel{proba3_wykres}{{4.5}{17}{Wykresy pokazujące przebieg uczenia się sieci neuronowej GoogLeNet}{figure.4.5}{}}
\newlabel{proba3_wykres@cref}{{[figure][5][4]4.5}{[1][17][]17}}
\@writefile{lof}{\contentsline {figure}{\numberline {4.6.}{\ignorespaces Wyniki rozpoznania obraz\'ow znajduj\k acych si\k e w zbiorze testowym}}{17}{figure.4.6}\protected@file@percent }
\@writefile{lof}{\contentsline {figure}{\numberline {4.7.}{\ignorespaces Wyniki rozpoznania obraz\'ow znajduj\k acych si\k e w zbiorze testowym}}{18}{figure.4.7}\protected@file@percent }
\@writefile{toc}{\contentsline {chapter}{\numberline {5\relax .\leavevmode@ifvmode \kern .5em }Zamro\.zenie wag w pocz\k atkowych warstwach}{19}{chapter.5}\protected@file@percent }
\@writefile{lof}{\addvspace {10\p@ }}
\@writefile{lot}{\addvspace {10\p@ }}
\@writefile{lof}{\contentsline {figure}{\numberline {5.1.}{\ignorespaces Wykresy pokazuj\k ace przebieg uczenia si\k e sieci neuronowej GoogLeNet}}{19}{figure.5.1}\protected@file@percent }
\newlabel{proba3_wykres}{{5.1}{19}{Wykresy pokazujące przebieg uczenia się sieci neuronowej GoogLeNet}{figure.5.1}{}}
\newlabel{proba3_wykres@cref}{{[figure][1][5]5.1}{[1][19][]19}}
\@writefile{lof}{\contentsline {figure}{\numberline {5.2.}{\ignorespaces Wyniki rozpoznania obraz\'ow znajduj\k acych si\k e w zbiorze testowym}}{19}{figure.5.2}\protected@file@percent }
\@writefile{toc}{\contentsline {chapter}{\numberline {6\relax .\leavevmode@ifvmode \kern .5em }Mo\.zliwo\'s\'c przyspieszenia uczenia dzi\k eki wykorzystaniu GPU lub wielu procesor\'ow}{21}{chapter.6}\protected@file@percent }
\@writefile{lof}{\addvspace {10\p@ }}
\@writefile{lot}{\addvspace {10\p@ }}
